%YAML 1.1
%TAG !u! tag:unity3d.com,2011:
--- !u!1 &7296821271373607406
GameObject:
  m_ObjectHideFlags: 0
  m_CorrespondingSourceObject: {fileID: 0}
  m_PrefabInstance: {fileID: 0}
  m_PrefabAsset: {fileID: 0}
  serializedVersion: 6
  m_Component:
  - component: {fileID: 7296821271373607402}
  - component: {fileID: 7296821271373607403}
  - component: {fileID: 7296821271373607404}
  - component: {fileID: 7296821271373607405}
  m_Layer: 0
  m_Name: spawner facil
  m_TagString: Untagged
  m_Icon: {fileID: 0}
  m_NavMeshLayer: 0
  m_StaticEditorFlags: 0
  m_IsActive: 0
--- !u!4 &7296821271373607402
Transform:
  m_ObjectHideFlags: 0
  m_CorrespondingSourceObject: {fileID: 0}
  m_PrefabInstance: {fileID: 0}
  m_PrefabAsset: {fileID: 0}
  m_GameObject: {fileID: 7296821271373607406}
  m_LocalRotation: {x: 0, y: 0, z: 0, w: 1}
  m_LocalPosition: {x: 49, y: 155, z: 143}
  m_LocalScale: {x: 200, y: 200, z: 200}
  m_ConstrainProportionsScale: 0
  m_Children: []
  m_Father: {fileID: 0}
  m_RootOrder: 0
  m_LocalEulerAnglesHint: {x: 0, y: 0, z: 0}
--- !u!114 &7296821271373607403
MonoBehaviour:
  m_ObjectHideFlags: 0
  m_CorrespondingSourceObject: {fileID: 0}
  m_PrefabInstance: {fileID: 0}
  m_PrefabAsset: {fileID: 0}
  m_GameObject: {fileID: 7296821271373607406}
  m_Enabled: 1
  m_EditorHideFlags: 0
  m_Script: {fileID: 11500000, guid: e5f5c971fa0d4d64886508785c01f0f8, type: 3}
  m_Name: 
  m_EditorClassIdentifier: 
  pre1: {fileID: 3508071301967960803, guid: e919cf175ce8602489fc62d0935d7f39, type: 3}
  pre2: {fileID: 3508071301967960803, guid: febf9193208a8464395408e7accf5ee8, type: 3}
  pre3: {fileID: 3508071301967960803, guid: 567c8a31f87ec874a9eebd6bf40c5eb0, type: 3}
  pre4: {fileID: 3508071301967960803, guid: 0eeca8ab04278a54c9cc40a2ee621f44, type: 3}
  pre5: {fileID: 3508071301967960803, guid: 8f674f711a8c4ca41a28f62b703ab522, type: 3}
  pre6: {fileID: 3508071301967960803, guid: 0eeca8ab04278a54c9cc40a2ee621f44, type: 3}
  enemigo: {fileID: 0}
  yo: {fileID: 7296821271373607406}
  Radio: 100
  rand: 0
  rant: 0
  tiempo: 10
--- !u!23 &7296821271373607404
MeshRenderer:
  m_ObjectHideFlags: 0
  m_CorrespondingSourceObject: {fileID: 0}
  m_PrefabInstance: {fileID: 0}
  m_PrefabAsset: {fileID: 0}
  m_GameObject: {fileID: 7296821271373607406}
  m_Enabled: 0
  m_CastShadows: 0
  m_ReceiveShadows: 1
  m_DynamicOccludee: 1
  m_StaticShadowCaster: 0
  m_MotionVectors: 1
  m_LightProbeUsage: 1
  m_ReflectionProbeUsage: 1
  m_RayTracingMode: 2
  m_RayTraceProcedural: 0
  m_RenderingLayerMask: 1
  m_RendererPriority: 0
  m_Materials:
  - {fileID: 2100000, guid: 77b93b17db39e574db9c40f661c297a4, type: 2}
  m_StaticBatchInfo:
    firstSubMesh: 0
    subMeshCount: 0
  m_StaticBatchRoot: {fileID: 0}
  m_ProbeAnchor: {fileID: 0}
  m_LightProbeVolumeOverride: {fileID: 0}
  m_ScaleInLightmap: 1
  m_ReceiveGI: 1
  m_PreserveUVs: 0
  m_IgnoreNormalsForChartDetection: 0
  m_ImportantGI: 0
  m_StitchLightmapSeams: 1
  m_SelectedEditorRenderState: 3
  m_MinimumChartSize: 4
  m_AutoUVMaxDistance: 0.5
  m_AutoUVMaxAngle: 89
  m_LightmapParameters: {fileID: 0}
  m_SortingLayerID: 0
  m_SortingLayer: 0
  m_SortingOrder: 0
  m_AdditionalVertexStreams: {fileID: 0}
--- !u!33 &7296821271373607405
MeshFilter:
  m_ObjectHideFlags: 0
  m_CorrespondingSourceObject: {fileID: 0}
  m_PrefabInstance: {fileID: 0}
  m_PrefabAsset: {fileID: 0}
  m_GameObject: {fileID: 7296821271373607406}
  m_Mesh: {fileID: 10207, guid: 0000000000000000e000000000000000, type: 0}
